{
  "folders": [
    {
      "name": "React",
      "parentId": "Q-SsYwn7",
      "isOpen": false,
      "isSystem": false,
      "defaultLanguage": "plain_text",
      "id": "tXHGdGaN",
      "createdAt": 1679847906089,
      "updatedAt": 1679847909987,
      "index": 0
    },
    {
      "name": "React_Native",
      "parentId": "Q-SsYwn7",
      "isOpen": false,
      "isSystem": false,
      "defaultLanguage": "javascript",
      "id": "Nc6MFhFM",
      "createdAt": 1679847948631,
      "updatedAt": 1679848046977,
      "index": 1
    },
    {
      "name": "NodeJS",
      "parentId": "Q-SsYwn7",
      "isOpen": false,
      "isSystem": false,
      "defaultLanguage": "javascript",
      "id": "8nb5pEie",
      "createdAt": 1679847969722,
      "updatedAt": 1679848059441,
      "index": 2
    },
    {
      "name": "Typescript",
      "parentId": "Q-SsYwn7",
      "isOpen": false,
      "isSystem": false,
      "defaultLanguage": "javascript",
      "id": "k1a-piPt",
      "createdAt": 1679847940540,
      "updatedAt": 1679848072131,
      "index": 3
    },
    {
      "name": "VanillaJS",
      "parentId": "Q-SsYwn7",
      "isOpen": false,
      "isSystem": false,
      "defaultLanguage": "javascript",
      "id": "qKAh4_Jq",
      "createdAt": 1679847926031,
      "updatedAt": 1679848098291,
      "index": 4
    },
    {
      "name": "Firebase",
      "parentId": "Q-SsYwn7",
      "isOpen": false,
      "isSystem": false,
      "defaultLanguage": "javascript",
      "id": "tDAveeKS",
      "createdAt": 1679848359807,
      "updatedAt": 1679848388706,
      "index": 5
    },
    {
      "name": "Javascript",
      "parentId": null,
      "isOpen": false,
      "isSystem": false,
      "defaultLanguage": "javascript",
      "id": "Q-SsYwn7",
      "createdAt": 1679847271003,
      "updatedAt": 1679848011689,
      "index": 0
    },
    {
      "name": "Django",
      "parentId": "9C0iQYQc",
      "isOpen": false,
      "isSystem": false,
      "defaultLanguage": "plain_text",
      "id": "zBO2h5Xi",
      "createdAt": 1679847473187,
      "updatedAt": 1679847480828,
      "index": 0
    },
    {
      "name": "Flask",
      "parentId": "9C0iQYQc",
      "isOpen": false,
      "isSystem": false,
      "defaultLanguage": "plain_text",
      "id": "tynrMVsb",
      "createdAt": 1679847484089,
      "updatedAt": 1679847487250,
      "index": 1
    },
    {
      "name": "Python_Pur",
      "parentId": "9C0iQYQc",
      "isOpen": false,
      "isSystem": false,
      "defaultLanguage": "python",
      "id": "OJOFvNMs",
      "createdAt": 1679847492353,
      "updatedAt": 1679848258572,
      "index": 2
    },
    {
      "name": "Script",
      "parentId": "9C0iQYQc",
      "isOpen": false,
      "isSystem": false,
      "defaultLanguage": "python",
      "id": "e9LH3viE",
      "createdAt": 1679847492568,
      "updatedAt": 1679848231577,
      "index": 3
    },
    {
      "name": "Tkinter",
      "parentId": "9C0iQYQc",
      "isOpen": false,
      "isSystem": false,
      "defaultLanguage": "plain_text",
      "id": "rSWabOLi",
      "createdAt": 1679847510264,
      "updatedAt": 1679847514170,
      "index": 4
    },
    {
      "name": "Python",
      "parentId": null,
      "isOpen": false,
      "isSystem": false,
      "defaultLanguage": "plain_text",
      "id": "9C0iQYQc",
      "createdAt": 1679847255575,
      "updatedAt": 1679847261379,
      "index": 1
    },
    {
      "name": "Arduino",
      "parentId": "acNh51xR",
      "isOpen": false,
      "isSystem": false,
      "defaultLanguage": "plain_text",
      "id": "jPs2e-Ba",
      "createdAt": 1679847344339,
      "updatedAt": 1679847349379,
      "index": 0
    },
    {
      "name": "ESP32/8266",
      "parentId": "acNh51xR",
      "isOpen": false,
      "isSystem": false,
      "defaultLanguage": "plain_text",
      "id": "rTk8bY8m",
      "createdAt": 1679847362729,
      "updatedAt": 1679847387641,
      "index": 1
    },
    {
      "name": "Raspberry_PICO",
      "parentId": "acNh51xR",
      "isOpen": false,
      "isSystem": false,
      "defaultLanguage": "plain_text",
      "id": "dBuIAltw",
      "createdAt": 1679847392593,
      "updatedAt": 1679847407106,
      "index": 2
    },
    {
      "name": "Micropython",
      "parentId": "acNh51xR",
      "isOpen": true,
      "isSystem": false,
      "defaultLanguage": "plain_text",
      "id": "69pkGkfo",
      "createdAt": 1679847263533,
      "updatedAt": 1679847267667,
      "index": 3
    },
    {
      "name": "Documents",
      "parentId": "acNh51xR",
      "isOpen": false,
      "isSystem": false,
      "defaultLanguage": "plain_text",
      "id": "MnwxZq9A",
      "createdAt": 1679848500544,
      "updatedAt": 1679848504254,
      "index": 4
    },
    {
      "name": "Arduino_Microcontrollers",
      "parentId": null,
      "isOpen": false,
      "isSystem": false,
      "defaultLanguage": "plain_text",
      "id": "acNh51xR",
      "createdAt": 1679847311839,
      "updatedAt": 1679847331382,
      "index": 2
    },
    {
      "name": "Documents",
      "parentId": "1xo91gt-",
      "isOpen": false,
      "isSystem": false,
      "defaultLanguage": "markdown",
      "id": "9P61amIF",
      "createdAt": 1679848436151,
      "updatedAt": 1679848459664,
      "index": 0
    },
    {
      "name": "C_C++",
      "parentId": null,
      "isOpen": false,
      "isSystem": false,
      "defaultLanguage": "c_cpp",
      "id": "1xo91gt-",
      "createdAt": 1679847891340,
      "updatedAt": 1679869153477,
      "index": 3
    },
    {
      "name": "Shell_Scripts",
      "parentId": "g6Sb-hTm",
      "isOpen": false,
      "isSystem": false,
      "defaultLanguage": "sh",
      "id": "rlwAI6Zc",
      "createdAt": 1679847436025,
      "updatedAt": 1679848172699,
      "index": 0
    },
    {
      "name": "Commandes",
      "parentId": "g6Sb-hTm",
      "isOpen": false,
      "isSystem": false,
      "defaultLanguage": "sh",
      "id": "-ZfLDE-6",
      "createdAt": 1679848156492,
      "updatedAt": 1679848185228,
      "index": 1
    },
    {
      "name": "Bash",
      "parentId": null,
      "isOpen": false,
      "isSystem": false,
      "defaultLanguage": "plain_text",
      "id": "g6Sb-hTm",
      "createdAt": 1679848136346,
      "updatedAt": 1679848144315,
      "index": 4
    }
  ],
  "snippets": [
    {
      "isDeleted": true,
      "isFavorites": false,
      "folderId": "OJOFvNMs",
      "tagsIds": [
        "otbIJFRL"
      ],
      "description": null,
      "name": "Promise python",
      "content": [
        {
          "label": "Fragment 1",
          "language": "python",
          "value": "print(\"hello\")"
        }
      ],
      "id": "fLOWYMem",
      "createdAt": 1679848264069,
      "updatedAt": 1679848978220
    },
    {
      "isDeleted": false,
      "isFavorites": false,
      "folderId": "9P61amIF",
      "tagsIds": [],
      "description": null,
      "name": "Type de données en langage C",
      "content": [
        {
          "label": "Fragment 1",
          "language": "markdown",
          "value": "# Types de données\n\n## Types simples\n\n> [Langage C #3 - variables](https://www.youtube.com/watch?v=kKeGTDyvi1o)\n\n⚠ Attention au type **char**, dont son usage ne garantit pas une occupation mémoire de 1 octet !\n\n### Signés\n\n|Syntaxe|Occupation mémoire|Fourchette de valeurs|printf|\n|:--:|:--:|:--:|:--:|\n|`char`|?|?|`%c`\n|`signed char`|1 octet|-128 à 127|`%c`\n|`short`|2 octets|-32 768 à 32 767|`%hd`\n|`int`|2 octets / 4 octets|-32 768 / -2 147 483 648 à 32 767 / 2 147 483 647|`%d`\n|`long`|4 octets|-2 147 483 648 à 2 147 483 647|`%ld`\n|`long long`|8 octets|-9 223 372 036 854 775 808 à 9 223 372 036 854 775 807|`%lld`\n|`float`|4 octets|-3,4.10<sup>38</sup> à 3,4.10<sup>38</sup>|`%f`\n|`double`|8 octets|-1,7.10<sup>308</sup> à 1,7.10<sup>308</sup>|`%lf`\n|`long double`|10 octets|-1,1.10<sup>4932</sup> à 1,1.10<sup>4932</sup>|`%Lf`\n\n### Non signés\n\n|Syntaxe|Occupation mémoire|Fourchette de valeurs|printf|\n|:--:|:--:|:--:|:--:|\n|`unsigned char`|1 octet|0 à 255|`%hhu`\n|`unsigned short`|2 octets|0 à 65 535|`%hu`\n|`unsigned int`|2 octets / 4 octets|0 à 65 635 / 4 294 967 295|`%u`\n|`unsigned long`|4 octets|0 à 4 294 967 295|`%lu`\n|`unsigned long long`|8 octets|0 à 18 446 744 073 709 551 615|`%llu`\n\n---\n\n## Types étendus\n\n> L'utilisation de ces types nécessite l'ajout de l'en-tête **stdint.h** à votre fichier source. De plus, étant optionnels, il n'y a aucune garantie de leur portabilité.\n\n### Signés\n\n|Fixe|Minimale|Maximale|Rapide|Correspondance|printf|\n|:--:|:--:|:--:|:--:|:--:|:--:|\n|`int8_t`|int_least8_t|-|int_fast8_t|signed char|`%\"PRId8\"`\n|`int16_t`|int_least16_t|-|int_fast16_t|short|`%\"PRId16\"`\n|`int32_t`|int_least32_t|-|int_fast32_t|int|`%\"PRId32\"`\n|`int64_t`|int_least64_t|intmax_t|int_fast64_t|long long|`%\"PRId64\"`\n\n### Non signés\n\n|Fixe|Minimale|Maximale|Rapide|Correspondance|printf|\n|:--:|:--:|:--:|:--:|:--:|:--:|\n|`uint8_t`|uint_least8_t|-|uint_fast8_t|unsigned char|`%\"PRIu8\"`\n|`uint16_t`|uint_least16_t|-|uint_fast16_t|unsigned short|`%\"PRIu16\"`\n|`uint32_t`|uint_least32_t|-|uint_fast32_t|unsigned int|`%\"PRIu32\"`\n|`uint64_t`|uint_least64_t|uintmax_t|uint_fast64_t|unsigned long long|`%\"PRIu64\"`"
        }
      ],
      "id": "oseXOc5Q",
      "createdAt": 1679848460580,
      "updatedAt": 1679848484490
    },
    {
      "isDeleted": false,
      "isFavorites": false,
      "folderId": "MnwxZq9A",
      "tagsIds": [],
      "description": null,
      "name": "Type de données en langage Arduino",
      "content": [
        {
          "label": "Fragment 1",
          "language": "markdown",
          "value": "# Types de données et tailles en mémoire pour Arduino\n\n## Types de données entiers\n\n| Type        | Taille (bits) | Plage de valeurs            |\n|-------------|---------------|-----------------------------|\n| `char`      | 8             | -128 à 127                  |\n| `unsigned char` | 8         | 0 à 255                     |\n| `byte`      | 8             | 0 à 255                     |\n| `int`       | 16            | -32 768 à 32 767            |\n| `unsigned int` | 16         | 0 à 65 535                  |\n| `word`      | 16            | 0 à 65 535                  |\n| `long`      | 32            | -2 147 483 648 à 2 147 483 647 |\n| `unsigned long` | 32        | 0 à 4 294 967 295           |\n\n## Types de données à virgule flottante\n\n| Type        | Taille (bits) | Plage de valeurs            |\n|-------------|---------------|-----------------------------|\n| `float`     | 32            | ±1.18E-38 à ±3.4E+38        |\n| `double`    | 32            | ±1.18E-38 à ±3.4E+38        |\n\n## Types de données booléans\n\n| Type        | Taille (bits) | Plage de valeurs            |\n|-------------|---------------|-----------------------------|\n| `bool`     | 8            | true ou false       |\n\n"
        }
      ],
      "id": "1N4W6wN0",
      "createdAt": 1679848520557,
      "updatedAt": 1679848567721
    },
    {
      "isDeleted": false,
      "isFavorites": false,
      "folderId": "rTk8bY8m",
      "tagsIds": [],
      "description": null,
      "name": "ESP32 bluetooth",
      "content": [
        {
          "label": "Fragment 1",
          "language": "c_cpp",
          "value": "#include <Arduino.h>\n#include \"BluetoothSerial.h\"\n \n#if !defined(CONFIG_BT_ENABLED) || !defined(CONFIG_BLUEDROID_ENABLED)\n#error Bluetooth is not enabled! Please run `make menuconfig` to and enable it\n#endif\n \nBluetoothSerial SerialBT;\n \nvoid setup() {\n  Serial.begin(115200);\n  SerialBT.begin(\"ESP32test\"); //Bluetooth device name\n  Serial.println(\"The device started, now you can pair it with bluetooth!\");\n}\n \nvoid loop() {\n  if (Serial.available()) {\n    SerialBT.write(Serial.read());\n  }\n  if (SerialBT.available()) {\n    Serial.write(SerialBT.read());\n  }\n  delay(20);\n}"
        }
      ],
      "id": "Pww9p_s8",
      "createdAt": 1679848856056,
      "updatedAt": 1679848881385
    },
    {
      "isDeleted": false,
      "isFavorites": false,
      "folderId": "OJOFvNMs",
      "tagsIds": [],
      "description": null,
      "name": "récuperer les valeurs dans un tableau",
      "content": [
        {
          "label": "Fragment 1",
          "language": "python",
          "value": "data = [\n    {\n        \"name\": \"John\",\n        \"age\": 30,\n        \"city\": \"Paris\"\n    },\n    {\n        \"name\": \"Alice\",\n        \"age\": 25,\n        \"city\": \"London\"\n    },\n    {\n        \"name\": \"Bob\",\n        \"age\": 35,\n        \"city\": \"New York\"\n    }\n]\n \n# Récupérer tous les âges dans un tableau\nages = [person[\"age\"] for person in data]\n \n# Afficher le tableau des âges\nprint(ages)\n# [30, 25, 35]"
        }
      ],
      "id": "MuA_ujIr",
      "createdAt": 1679848979235,
      "updatedAt": 1679848998781
    },
    {
      "isDeleted": false,
      "isFavorites": false,
      "folderId": "8nb5pEie",
      "tagsIds": [],
      "description": null,
      "name": "exemple socket io express js + react envoie un compteur",
      "content": [
        {
          "label": "server.js",
          "language": "javascript",
          "value": "const express = require('express');\nconst app = express();\nconst server = require('http').Server(app);\nconst io = require('socket.io')(server);\n \nlet count = 0;\n \nsetInterval(() => {\n  io.emit('count', count++);\n}, 1000);\n \napp.use(express.static(__dirname + '/public'));\n \nserver.listen(3000, () => {\n  console.log('Server running on port 3000');\n});"
        },
        {
          "label": "client.js",
          "language": "javascript",
          "value": "import React, { useState, useEffect } from 'react';\nimport io from 'socket.io-client';\n \nfunction App() {\n  const [count, setCount] = useState(0);\n \n  useEffect(() => {\n    const socket = io('http://localhost:3000',{transports:[\"websocket\"]});\n    socket.on('count', data => {\n      setCount(data);\n    });\n  }, []);\n \n  return (\n    <div>\n      <h1>Count: {count}</h1>\n    </div>\n  );\n}\n \nexport default App;"
        }
      ],
      "id": "MrgoQV-0",
      "createdAt": 1679849014104,
      "updatedAt": 1679849100285
    },
    {
      "isDeleted": false,
      "isFavorites": false,
      "folderId": "tynrMVsb",
      "tagsIds": [],
      "description": null,
      "name": "exemple applicatio flask mqtt et socket io",
      "content": [
        {
          "label": "app.py",
          "language": "python",
          "value": "from flask import Flask, render_template\nfrom flask_mqtt import Mqtt\nfrom flask_socketio import SocketIO\napp = Flask(__name__)\napp.config['MQTT_BROKER_URL'] = '192.168.0.210'\napp.config['MQTT_BROKER_PORT'] = 1883\napp.config['MQTT_USERNAME'] = ''\napp.config['MQTT_PASSWORD'] = ''\napp.config['MQTT_KEEPALIVE'] = 5\napp.config['MQTT_TLS_ENABLED'] = False\n \nmqtt = Mqtt(app)\nsocketio = SocketIO(app)\n \n \n@mqtt.on_connect()\ndef handle_connect(client, userdata, flags, rc):\n    mqtt.subscribe('bureau/humidity')\n    mqtt.subscribe('bureau/temperature')\n \n \n@mqtt.on_message()\ndef handle_mqtt_message(client, userdata, message):\n \n    data = dict(\n        topic=message.topic,\n        payload=message.payload.decode()\n    )\n    if message.topic == 'bureau/humidity':\n        socketio.emit('mqtt_message', data=data)\n \n    if message.topic == 'bureau/temperature':\n        socketio.emit('mqtt_message', data=data)\n \n \n@app.route('/')\ndef index():\n    return render_template('index.html')\n \n \nif __name__ == '__main__':\n    mqtt.init_app(app)\n    socketio.run(app)"
        },
        {
          "label": "index.html",
          "language": "html",
          "value": "<!DOCTYPE html>\n<html lang=\"en\">\n<head>\n    <meta charset=\"UTF-8\">\n    <title>Title</title>\n    <link rel=\"stylesheet\" href=\"https://cdnjs.cloudflare.com/ajax/libs/font-awesome/4.7.0/css/font-awesome.min.css\">\n    <script defer src=\"{{ url_for('static', filename='script.js') }}\"></script>\n    <script src=\"https://cdnjs.cloudflare.com/ajax/libs/socket.io/4.0.1/socket.io.js\" integrity=\"sha512-q/dWJ3kcmjBLU4Qc47E4A9kTB4m3wuTY7vkFJDTZKjTs8jhyGQnaUrxa0Ytd0ssMZhbNua9hE+E7Qv1j+DyZwA==\" crossorigin=\"anonymous\"></script>\n \n</head>\n<style>\n.container{\n    display: grid;\n    grid-template-columns: 1fr 1fr;\n    min-height: 100vh;\n}\n \nh1{\n    font-size:85px;\n}\n \n.box{\n    display: flex;\n    flex-direction: column;\n    justify-content: center;\n    align-items: center;\n}\n</style>\n<body>\n<div class=\"container\">\n \n<div class=\"box\">\n    <h1> temperature</h1>\n    <h1 id=\"temperature\">{{ temperature }}</h1>\n</div>\n    <div class=\"box\">\n     <h1> humidité</h1>\n        <h1 id=\"humidity\">{{ humidity }}</h1>\n</div>\n</div>\n \n</body>\n</html>"
        },
        {
          "label": "script.js",
          "language": "javascript",
          "value": "const socket = io('http://127.0.0.1:5000');\nfunction updateUI(data) {\n  console.log(data)\n  // Mise à jour de l'élément HTML avec l'ID \"temperature\" avec les données reçues\n  // document.getElementById('temperature').textContent = data;\n}\n// Gestion de l'événement \"mqtt_message\" envoyé par le serveur\nsocket.on('mqtt_message', function(data) {\n    console.log(data)\n   if(data.topic === 'bureau/humidity') {\n    document.querySelector(\"#humidity\").innerHTML = data.payload;\n  }\n  if(data.topic === 'bureau/temperature') {\n    document.querySelector(\"#temperature\").innerHTML = data.payload;\n  }\n  console.log('Données reçues du serveur:', data);\n  // Mise à jour de l'interface utilisateur avec les données reçues\n  // updateUI(data);\n});"
        }
      ],
      "id": "JD9_qdtS",
      "createdAt": 1679849157775,
      "updatedAt": 1679849266446
    },
    {
      "isDeleted": false,
      "isFavorites": false,
      "folderId": "OJOFvNMs",
      "tagsIds": [],
      "description": null,
      "name": "python asyncio non bloquant",
      "content": [
        {
          "label": "Fragment 1",
          "language": "python",
          "value": "from time import sleep\n \nimport asyncio\n \nasync def first():\n    while True:\n        await asyncio.sleep(5)\n        print(\"first\")\n \nasync def second():\n     while True:\n        await asyncio.sleep(2)\n        print(\"second\")\n \nloop = asyncio.get_event_loop()\nasyncio.ensure_future(first())\nasyncio.ensure_future(second())\nloop.run_forever()\n\n"
        }
      ],
      "id": "jewWwjiA",
      "createdAt": 1679849319570,
      "updatedAt": 1679849611588
    },
    {
      "isDeleted": true,
      "isFavorites": false,
      "folderId": "tDAveeKS",
      "tagsIds": [],
      "description": null,
      "name": "Untitled snippet",
      "content": [
        {
          "label": "Fragment 1",
          "language": "markdown",
          "value": "\n![nom de l'image](https://external-content.duckduckgo.com/iu/?u=https%3A%2F%2Ftse1.mm.bing.net%2Fth%3Fid%3DOIP.AyRnEJ07S16FWVo8_Za7rAHaFY%26pid%3DApi&f=1&ipt=3313a9b771b968939bf3aa6361766f17272bb012d51f2f9a931763c7605a0866&ipo=images)\n"
        }
      ],
      "id": "Hvl1UJuj",
      "createdAt": 1679849902402,
      "updatedAt": 1679850139351
    },
    {
      "isDeleted": false,
      "isFavorites": false,
      "folderId": "1xo91gt-",
      "tagsIds": [],
      "description": null,
      "name": "exemple pointeur",
      "content": [
        {
          "label": "pointeur1",
          "language": "c_cpp",
          "value": "//Ce programme déclare une fonction \"incrementer\" qui prend un pointeur en argument et incrémente la valeur stockée à l'adresse pointée par ce pointeur. Le programme appelle ensuite cette fonction en lui passant l'adresse de la variable \"x\" en tant qu'argument. Cela aura pour effet //d'incrémenter la valeur de \"x\" elle-même.\n#include <stdio.h>\n\nvoid incrementer(int *ptr) { // Déclaration d'une fonction qui prend un pointeur en argument\n    (*ptr)++; // Incrémente la valeur pointée par le pointeur\n}\n\nint main() {\n    int x = 42;\n    printf(\"La valeur de x avant appel à incrementer() est : %d\\n\", x);\n    incrementer(&x); // Passage de l'adresse de x en tant qu'argument\n    printf(\"La valeur de x après appel à incrementer() est : %d\\n\", x);\n    return 0;\n}\n"
        },
        {
          "label": "pointeur2",
          "language": "c_cpp",
          "value": "//Ce programme déclare un pointeur \"ptr\" qui pointe vers la variable \"x\", et utilise l'opérateur \"*\" pour accéder à la valeur stockée à l'adresse mémoire pointée par \"ptr\". Le programme modifie ensuite la valeur de \"x\" à travers le pointeur, ce qui aura pour effet de modifier la valeur de \"x\" elle-même.//\n\n#include <stdio.h>\n\nint main() {\n    int x = 42;\n    int *ptr = &x; // Déclaration d'un pointeur vers x\n    \n    printf(\"La valeur de x est : %d\\n\", x);\n    printf(\"La valeur pointée par ptr est : %d\\n\", *ptr); // Utilisation de l'opérateur \"*\"\n    \n    *ptr = 100; // Modification de la valeur de x à travers le pointeur\n    printf(\"La nouvelle valeur de x est : %d\\n\", x);\n    \n    return 0;\n}\n"
        },
        {
          "label": "pointeur3",
          "language": "c_cpp",
          "value": "//Passage d'un pointeur en tant qu'argument de fonction :\n\n#include <stdio.h>\n\nvoid incrementer(int *ptr) { // Déclaration d'une fonction qui prend un pointeur en argument\n    (*ptr)++; // Incrémente la valeur pointée par le pointeur\n}\n\nint main() {\n    int x = 42;\n    printf(\"La valeur de x avant appel à incrementer() est : %d\\n\", x);\n    incrementer(&x); // Passage de l'adresse de x en tant qu'argument\n    printf(\"La valeur de x après appel à incrementer() est : %d\\n\", x);\n    return 0;\n}\n"
        }
      ],
      "id": "cBjiX8nl",
      "createdAt": 1679869154601,
      "updatedAt": 1679870638330
    }
  ],
  "tags": [
    {
      "name": "python",
      "id": "otbIJFRL",
      "createdAt": 1679848306000,
      "updatedAt": 1679848306000
    }
  ]
}